
com.hcl.surabi.exception
com.hcl.surabi.presentation
com.hcl.surabi.util

class Item{

 int seqno;
 String itemName;
 int qty;
  double price;


} 

class Restuarant{

 String uname;
 List<Item> items;  //Item[] items;
 LocalDate date;
 double total;



}


	Enter A for admin or U for User

	U --> USER

1.	login success
2.      See all items/display menu
	displya menu list collections
	


	Enter name : javeed

	Enter Item: new Item(2,momos,2,190.0);
		    new Item(3,Redthai,2,180.0)	

		List<Item> 

        Total : 370
         Date : LocalDateTime.now();
	

------------------------------------------------------------------------------
enum Month{
					
						JAN,FEB,MAR,APR,NOV,DEC;
				int nod;
						
						public Month(int nod) {
							
							this.nod = nod;
						}
					
					
				}
				
				 JAN(31); FEB(28);











